11 Filtering, smoothing | A collection of note for ESCI 504
…
Go through the code and make sure you follow what just happened at each step.

11.4.2 Removing low frequency variability

Sometimes we use filters as visual aids that help us see certain aspects of the data. Other times we want to work only with low or high frequency data. A common way of removing some kinds of variability is to take residuals from a filter to remove, say, low-frequency variability.

For instance, a perennial problem in working with tree-ring data is the problem of detrending the biological growth curve from the signal that you usually want – the year-to-year variability caused by, say, plant available water. Smaller trees have larger rings solely as a function of geometry. This leads to a natural negative exponential decay in growth as the tree ages that has nothing to do with climate. We can remove that signal by fitting a loess curve and then taking the residuals via division (subtraction can be used too). Dendrochronologists call this the ring-width index.

data(co021)
core1 <- tibble(yr = time(co021), mm = co021$`641114`)
core1 <- core1 %>% drop_na()
core1

## # A tibble: 694 × 2
##       yr    mm
##    <dbl> <dbl>
##  1  1270  1.48
##  2  1271  2.33
##  3  1272  1.32
##  4  1273  0.67
##  5  1274  0.82
##  6  1275  1.22
##  7  1276  0.52
##  8  1277  0.57
##  9  1278  0.4 
## 10  1279  0.65
## # ℹ 684 more rows
…
